[gd_scene load_steps=2 format=2]

[ext_resource path="res://cell.gd" type="Script" id=1]

[node name="Cell" type="ColorRect"]
margin_right = 9.0
margin_bottom = 9.0
rect_min_size = Vector2( 9, 9 )
mouse_filter = 2
color = Color( 0.572549, 0.164706, 0.584314, 1 )
script = ExtResource( 1 )
__meta__ = {
"_edit_use_anchors_": false
}

[node name="Flash" type="ColorRect" parent="."]
visible = false
anchor_right = 1.0
anchor_bottom = 1.0
mouse_filter = 2
color = Color( 0.976471, 0.588235, 0.0588235, 1 )
__meta__ = {
"_edit_use_anchors_": false
}

[node name="Clue" type="TextureRect" parent="."]
margin_left = 3.0
margin_top = 2.0
margin_right = 6.0
margin_bottom = 7.0
mouse_filter = 2
