[gd_scene load_steps=2 format=2]

[ext_resource path="res://present.gd" type="Script" id=1]

[node name="Present" type="Control"]
anchor_right = 1.0
anchor_bottom = 1.0
margin_left = 13.0
margin_top = 11.0
margin_right = -218.0
margin_bottom = -123.0
script = ExtResource( 1 )
__meta__ = {
"_edit_use_anchors_": false
}
